{
  "$schema": "http://json.schemastore.org/launchsettings.json",
  "profiles": {
    "API": {
      "commandName": "Project",
      "launchBrowser": true,
      "launchUrl": "showmethecode",
      "environmentVariables": {
        "ASPNETCORE_ENVIRONMENT": "Development"
      },
      "applicationUrl": "http://localhost:5000"
    },
    "Docker (1)": {
      "commandName": "Docker",
      "launchBrowser": true,
      "launchUrl": "{Scheme}://{ServiceHost}:{ServicePort}/showmethecode",
      "publishAllPorts": true
    }
  }
}